{
  "config": {
    "log": "info"
  },
  "source": {
    "file": {
      "path": "./output",
      "folders": "edge",
      "extension": "json"
    }
  },
  "extractor": {
    "json": {}
  },
  "transformers": [
    { "command": {
        "command": "UPDATE flowsTo SET src_files = $input.src_files, src_repo = $input.src_repo WHERE (SELECT FROM DataNode WHERE name = $input.dest) IN inV() AND (SELECT FROM DataNode WHERE name = $input.src) IN outV()"
      }
    },
    { "flow": {"if": "true", "operation": "skip"}}
  ],
  "loader": {
    "orientdb": {
      "dbURL": "plocal:./databases/MDR",
      "dbUser": "admin",
      "dbPassword": "admin",
      "dbAutoDropIfExists": false,
      "dbAutoCreate": false,
      "tx": false,
      "wal": false,
      "batchCommit": 1000,
      "dbType": "graph"
    }
  }
}
